{
    "MODEL_PARAMETERS_PRIORI": {
        "mu_max": [
            42,
            50
        ],
        "YPX": [
            5,
            30
        ],
        "kS": 0.02,
        "YXS": 0.5,
        "cSF": 500.0,
        "mu_set": 0.15,
        "tF": 8.0,
        "VL_max": 2.5
    },
    "MODEL_PARAMETERS_REAL": {
        "kS": 0.02,
        "mu_max": 0.4,
        "YXS": 0.5,
        "YPX": 0.2,
        "cSF": 500.0,
        "mu_set": 0.15,
        "tF": 8.0,
        "VL_max": 2.5
    },
    "PARAMETER_ESTIMATION_GUIDE": {
        "mu_max": [
            120,
            180
        ],
        "YPX": [
            45,
            180
        ]
    },
    "PARAMETER_OPTIMIZATION_BOUNDS": {
        "mu_set": [
            0.0,
            1.0
        ]
    },
    "MODIFY_PARAMS": [
        [
            {
                "mu_set": 1.02
            },
            {
                "mu_set": 1.01
            },
            {
                "mu_set": 1.03
            }
        ],
        [
            {
                "mu_set": 0.96
            },
            {
                "mu_set": 1.0
            },
            {
                "mu_set": 1.04
            }
        ],
        [
            {
                "mu_set": 0.97
            },
            {
                "mu_set": 0.99
            },
            {
                "mu_set": 0.98
            }
        ]
    ],
    "INITIAL_STATES": {
        "P0": 0.0,
        "S0": 40.0,
        "VL0": 1.0,
        "X0": 0.1,
        "TP0": 0.0
    },
    "FEED": {
        "DELTA_TIME": 1
    },
    "SAMPLES": {
        "QUANTITY": 18
    },
    "HAMILTON": {
        "PLATE_SIZE": 3
    },
    "MBR": {
        "QTY_C": 3,
        "QTY_R": 3
    },
    "SEED": "12345678"
}
  