{
  "samples": [
    {
      "P": 0.0,
      "S": 40.0,
      "VL": 1.0,
      "X": 0.1,
      "TP": 0.0
    },
    {
      "P": 3.2622,
      "S": 50.182,
      "VL": 1.1026,
      "X": 16.4015,
      "TP": 13.0
    },
    {
      "P": 16.5921,
      "S": 0.0117,
      "VL": 1.377,
      "X": 83.0327,
      "TP": 19.0
    },
    {
      "P": 27.508,
      "S": 0.0122,
      "VL": 2.0454,
      "X": 137.5888,
      "TP": 25.0
    },
    {
      "P": 31.5988,
      "S": 0.0,
      "VL": 2.5,
      "X": 158.0339,
      "TP": 31.0
    },
    {
      "P": 31.5988,
      "S": 0.0,
      "VL": 2.5,
      "X": 158.0339,
      "TP": 37.0
    },
    {
      "P": 31.5988,
      "S": 0.0,
      "VL": 2.5,
      "X": 158.0339,
      "TP": 43.0
    }
  ],
  "params": [
    {},
    {
      "kS": 0.02,
      "mu_max": 0.4,
      "YXS": 0.5,
      "YPX": 0.2,
      "cSF": 500.0,
      "mu_set": 0.1545,
      "tF": 8.0,
      "VL_max": 2.5
    },
    {
      "kS": 0.02,
      "mu_max": 0.4,
      "YXS": 0.5,
      "YPX": 0.2,
      "cSF": 500.0,
      "mu_set": 0.1545,
      "tF": 8.0,
      "VL_max": 2.5
    },
    {
      "kS": 0.02,
      "mu_max": 0.4,
      "YXS": 0.5,
      "YPX": 0.2,
      "cSF": 500.0,
      "mu_set": 0.1545,
      "tF": 8.0,
      "VL_max": 2.5
    },
    {
      "kS": 0.02,
      "mu_max": 0.4,
      "YXS": 0.5,
      "YPX": 0.2,
      "cSF": 500.0,
      "mu_set": 0.1545,
      "tF": 8.0,
      "VL_max": 2.5
    },
    {
      "kS": 0.02,
      "mu_max": 0.4,
      "YXS": 0.5,
      "YPX": 0.2,
      "cSF": 500.0,
      "mu_set": 0.1545,
      "tF": 8.0,
      "VL_max": 2.5
    },
    {
      "kS": 0.02,
      "mu_max": 0.4,
      "YXS": 0.5,
      "YPX": 0.2,
      "cSF": 500.0,
      "mu_set": 0.1545,
      "tF": 8.0,
      "VL_max": 2.5
    }
  ]
}