{
  "samples": [
    {
      "P": 0.0,
      "S": 40.0,
      "VL": 1.0,
      "X": 0.1,
      "TP": 0.0
    },
    {
      "P": 0.7013,
      "S": 39.0634,
      "VL": 1.0134,
      "X": 3.6054,
      "TP": 9.0
    },
    {
      "P": 6.9667,
      "S": 31.0553,
      "VL": 1.1521,
      "X": 34.9203,
      "TP": 15.0
    },
    {
      "P": 18.3782,
      "S": 0.0108,
      "VL": 1.4548,
      "X": 91.9596,
      "TP": 21.0
    },
    {
      "P": 28.7874,
      "S": 0.011,
      "VL": 2.1687,
      "X": 143.983,
      "TP": 27.0
    },
    {
      "P": 31.5994,
      "S": 0.0,
      "VL": 2.5,
      "X": 158.0371,
      "TP": 33.0
    },
    {
      "P": 31.5994,
      "S": 0.0,
      "VL": 2.5,
      "X": 158.0371,
      "TP": 39.0
    }
  ],
  "params": [
    {},
    {
      "kS": 0.02,
      "mu_max": 0.4,
      "YXS": 0.5,
      "YPX": 0.2,
      "cSF": 500.0,
      "mu_set": 0.144,
      "tF": 8.0,
      "VL_max": 2.5
    },
    {
      "kS": 0.02,
      "mu_max": 0.4,
      "YXS": 0.5,
      "YPX": 0.2,
      "cSF": 500.0,
      "mu_set": 0.144,
      "tF": 8.0,
      "VL_max": 2.5
    },
    {
      "kS": 0.02,
      "mu_max": 0.4,
      "YXS": 0.5,
      "YPX": 0.2,
      "cSF": 500.0,
      "mu_set": 0.144,
      "tF": 8.0,
      "VL_max": 2.5
    },
    {
      "kS": 0.02,
      "mu_max": 0.4,
      "YXS": 0.5,
      "YPX": 0.2,
      "cSF": 500.0,
      "mu_set": 0.144,
      "tF": 8.0,
      "VL_max": 2.5
    },
    {
      "kS": 0.02,
      "mu_max": 0.4,
      "YXS": 0.5,
      "YPX": 0.2,
      "cSF": 500.0,
      "mu_set": 0.144,
      "tF": 8.0,
      "VL_max": 2.5
    },
    {
      "kS": 0.02,
      "mu_max": 0.4,
      "YXS": 0.5,
      "YPX": 0.2,
      "cSF": 500.0,
      "mu_set": 0.144,
      "tF": 8.0,
      "VL_max": 2.5
    }
  ]
}