{
  "samples": [
    {
      "P": 0.0,
      "S": 40.0,
      "VL": 1.0,
      "X": 0.1,
      "TP": 0.0
    },
    {
      "P": 3.2838,
      "S": 47.1765,
      "VL": 1.0953,
      "X": 16.5105,
      "TP": 13.0
    },
    {
      "P": 15.6409,
      "S": 0.0109,
      "VL": 1.3389,
      "X": 78.2795,
      "TP": 19.0
    },
    {
      "P": 25.9077,
      "S": 0.0113,
      "VL": 1.9095,
      "X": 129.5912,
      "TP": 25.0
    },
    {
      "P": 31.599,
      "S": 0.0,
      "VL": 2.5,
      "X": 158.0352,
      "TP": 31.0
    },
    {
      "P": 31.599,
      "S": 0.0,
      "VL": 2.5,
      "X": 158.0352,
      "TP": 37.0
    },
    {
      "P": 31.599,
      "S": 0.0,
      "VL": 2.5,
      "X": 158.0352,
      "TP": 43.0
    }
  ],
  "params": [
    {},
    {
      "kS": 0.02,
      "mu_max": 0.4,
      "YXS": 0.5,
      "YPX": 0.2,
      "cSF": 500.0,
      "mu_set": 0.147,
      "tF": 8.0,
      "VL_max": 2.5
    },
    {
      "kS": 0.02,
      "mu_max": 0.4,
      "YXS": 0.5,
      "YPX": 0.2,
      "cSF": 500.0,
      "mu_set": 0.147,
      "tF": 8.0,
      "VL_max": 2.5
    },
    {
      "kS": 0.02,
      "mu_max": 0.4,
      "YXS": 0.5,
      "YPX": 0.2,
      "cSF": 500.0,
      "mu_set": 0.147,
      "tF": 8.0,
      "VL_max": 2.5
    },
    {
      "kS": 0.02,
      "mu_max": 0.4,
      "YXS": 0.5,
      "YPX": 0.2,
      "cSF": 500.0,
      "mu_set": 0.147,
      "tF": 8.0,
      "VL_max": 2.5
    },
    {
      "kS": 0.02,
      "mu_max": 0.4,
      "YXS": 0.5,
      "YPX": 0.2,
      "cSF": 500.0,
      "mu_set": 0.147,
      "tF": 8.0,
      "VL_max": 2.5
    },
    {
      "kS": 0.02,
      "mu_max": 0.4,
      "YXS": 0.5,
      "YPX": 0.2,
      "cSF": 500.0,
      "mu_set": 0.147,
      "tF": 8.0,
      "VL_max": 2.5
    }
  ]
}