{
  "samples": [
    {
      "P": 0.0,
      "S": 40.0,
      "VL": 1.0,
      "X": 0.1,
      "TP": 0.0
    },
    {
      "P": 1.5307,
      "S": 46.1645,
      "VL": 1.049,
      "X": 7.7489,
      "TP": 11.0
    },
    {
      "P": 12.9287,
      "S": 0.0109,
      "VL": 1.2409,
      "X": 64.7239,
      "TP": 17.0
    },
    {
      "P": 22.5944,
      "S": 0.0114,
      "VL": 1.6786,
      "X": 113.0316,
      "TP": 23.0
    },
    {
      "P": 31.5992,
      "S": 0.0,
      "VL": 2.5,
      "X": 158.0359,
      "TP": 29.0
    },
    {
      "P": 31.5992,
      "S": 0.0,
      "VL": 2.5,
      "X": 158.0359,
      "TP": 35.0
    },
    {
      "P": 31.5992,
      "S": 0.0,
      "VL": 2.5,
      "X": 158.0359,
      "TP": 41.0
    }
  ],
  "params": [
    {},
    {
      "kS": 0.02,
      "mu_max": 0.4,
      "YXS": 0.5,
      "YPX": 0.2,
      "cSF": 500.0,
      "mu_set": 0.1485,
      "tF": 8.0,
      "VL_max": 2.5
    },
    {
      "kS": 0.02,
      "mu_max": 0.4,
      "YXS": 0.5,
      "YPX": 0.2,
      "cSF": 500.0,
      "mu_set": 0.1485,
      "tF": 8.0,
      "VL_max": 2.5
    },
    {
      "kS": 0.02,
      "mu_max": 0.4,
      "YXS": 0.5,
      "YPX": 0.2,
      "cSF": 500.0,
      "mu_set": 0.1485,
      "tF": 8.0,
      "VL_max": 2.5
    },
    {
      "kS": 0.02,
      "mu_max": 0.4,
      "YXS": 0.5,
      "YPX": 0.2,
      "cSF": 500.0,
      "mu_set": 0.1485,
      "tF": 8.0,
      "VL_max": 2.5
    },
    {
      "kS": 0.02,
      "mu_max": 0.4,
      "YXS": 0.5,
      "YPX": 0.2,
      "cSF": 500.0,
      "mu_set": 0.1485,
      "tF": 8.0,
      "VL_max": 2.5
    },
    {
      "kS": 0.02,
      "mu_max": 0.4,
      "YXS": 0.5,
      "YPX": 0.2,
      "cSF": 500.0,
      "mu_set": 0.1485,
      "tF": 8.0,
      "VL_max": 2.5
    }
  ]
}